
Country specific text about table S03, tables 26 and 27
-------------------------------------------


.. start-text1-placeholder

Montenegro did not report SoE data on biology in rivers.

.. end-text1-placeholder
