
Country specific text about table S06, tables 36 and 37
-------------------------------------------


.. start-text1-placeholder

Malta did not report SoE data on biology in lakes.

.. end-text1-placeholder
